1 Import danych | Eksploracja danych
…
##   Sepal.Length Sepal.Width Petal.Length Petal.Width Species
## 1          5.1         3.5          1.4         0.2  setosa
## 2          4.9         3.0          1.4         0.2  setosa
## 3          4.7         3.2          1.3         0.2  setosa
## 4          4.6         3.1          1.5         0.2  setosa
## 5          5.0         3.6          1.4         0.2  setosa
## 6          5.4         3.9          1.7         0.4  setosa

# funkcja pakietu readr wczytuje plik jako ramkę danych w formacie tibble
# pakiet readr jest częsią większego pakietu tidyverse, 
# który został wczytany wczsniej
dane3 <- read_csv2("data/dane1.csv")
dane3

## # A tibble: 150 x 5
##    Sepal.Length Sepal.Width Petal.Length Petal.Width Species
##           <dbl>       <dbl>        <dbl>       <dbl> <chr>  
##  1          5.1         3.5          1.4         0.2 setosa 
##  2          4.9         3            1.4         0.2 setosa 
##  3          4.7         3.2          1.3         0.2 setosa 
##  4          4.6         3.1          1.5         0.2 setosa 
##  5          5           3.6          1.4         0.2 setosa 
##  6          5.4         3.9          1.7         0.4 setosa 
##  7          4.6         3.4          1.4         0.3 setosa 
##  8          5           3.4          1.5         0.2 setosa 
##  9          4.4         2.9          1.4         0.2 setosa 
## 10          4.9         3.1          1.5         0.1 setosa 
## # ... with 140 more rows
…
Figure 1.2: Fragment pliku Excel

Ponieważ w pliku dane1.xlsx braki danych zostały zakodowane znakami BD oraz -, to należy ten fakt przekazać funkcji, aby poprawnie wczytać braki danych. W przeciwnym przypadku zmienne zawierające braki tak kodowane, będą wczytane jako zmienne znakowe.

library(readxl)
dane4 <- read_excel("data/dane1.xlsx", na = c("BD", "-"))
dane4

## # A tibble: 150 x 5
##    `Długość kielic~ `Szerokość kiel~ `Długość płatka` `Szerokość płat~
##               <dbl>            <dbl>            <dbl>            <dbl>
##  1              5.1              3.5              1.4              0.2
##  2              4.9              3                1.4              0.2
##  3              4.7              3.2              1.3              0.2
##  4              4.6              3.1              1.5              0.2
##  5              5                3.6              1.4              0.2
##  6              5.4              3.9              1.7              0.4
##  7             NA               NA                1.4              0.3
##  8              5                3.4              1.5              0.2
##  9              4.4              2.9              1.4              0.2
## 10              4.9              3.1              1.5              0.1
## # ... with 140 more rows, and 1 more variable: Gatunki <chr>
…
## [1] "dane1" "dane2" "dane3" "dane4"

Zapisując obiekty jako oddzielne pliki, można przy wczytywaniu nadawać im nazwy.

rm(dane1, dane2, dane3)
ls()

## [1] "dane4"

saveRDS(dane4, file = "data/dane4.rds")
nowe_dane <- readRDS("data/dane4.rds")
nowe_dane

## # A tibble: 150 x 5
##    `Długość kielic~ `Szerokość kiel~ `Długość płatka` `Szerokość płat~
##               <dbl>            <dbl>            <dbl>            <dbl>
##  1              5.1              3.5              1.4              0.2
##  2              4.9              3                1.4              0.2
##  3              4.7              3.2              1.3              0.2
##  4              4.6              3.1              1.5              0.2
##  5              5                3.6              1.4              0.2
##  6              5.4              3.9              1.7              0.4
##  7             NA               NA                1.4              0.3
##  8              5                3.4              1.5              0.2
##  9              4.4              2.9              1.4              0.2
## 10              4.9              3.1              1.5              0.1
## # ... with 140 more rows, and 1 more variable: Gatunki <chr>
…
dane4 <- import("data/dane4.rds")
dane4

## # A tibble: 150 x 5
##    `Długość kielic~ `Szerokość kiel~ `Długość płatka` `Szerokość płat~
##               <dbl>            <dbl>            <dbl>            <dbl>
##  1              5.1              3.5              1.4              0.2
##  2              4.9              3                1.4              0.2
##  3              4.7              3.2              1.3              0.2
##  4              4.6              3.1              1.5              0.2
##  5              5                3.6              1.4              0.2
##  6              5.4              3.9              1.7              0.4
##  7             NA               NA                1.4              0.3
##  8              5                3.4              1.5              0.2
##  9              4.4              2.9              1.4              0.2
## 10              4.9              3.1              1.5              0.1
## # ... with 140 more rows, and 1 more variable: Gatunki <chr>
…
